<svg width="100" height="100" xmlns="http://www.w3.org/2000/svg">
  <rect width="100" height="100" style="fill:rgb(171,171,171)"/>
  <line x1="20" y1="50" x2="80" y2="50" stroke="black" stroke-width="20"/>
</svg>