<svg width="700" height="100" xmlns="http://www.w3.org/2000/svg">
  <rect width="700" height="100" style="fill:rgb(48,48,48)"/>
  <line x1="0" y1="50" x2="700" y2="50" stroke-dasharray="6.25 12.5 6.25 0" stroke="white" stroke-width="5"/>
</svg>